RとPythonは仲良し
…
5.2.2 Python

import pandas as pd
import polars as pl

5.3
★データフレーム読み込み

5.3.1 R

pen_r <-   palmerpenguins::penguins
pen_r

## # A tibble: 344 × 8
##   species island    bill_length_mm bill_depth_mm flipper_length_mm body_mass_g
##   <fct>   <fct>              <dbl>         <dbl>             <int>       <int>
## 1 Adelie  Torgersen           39.1          18.7               181        3750
## 2 Adelie  Torgersen           39.5          17.4               186        3800
## 3 Adelie  Torgersen           40.3          18                 195        3250
## 4 Adelie  Torgersen           NA            NA                  NA          NA
## 5 Adelie  Torgersen           36.7          19.3               193        3450
## # ℹ 339 more rows
## # ℹ 2 more variables: sex <fct>, year <int>
…
5.4.1.1 R

単一

# 列名確認
names(pen_r)

## [1] "species"           "island"            "bill_length_mm"   
## [4] "bill_depth_mm"     "flipper_length_mm" "body_mass_g"      
## [7] "sex"               "year"

pen_r |> 
  select(species)

## # A tibble: 344 × 1
##   species
##   <fct>  
## 1 Adelie 
## 2 Adelie 
## 3 Adelie 
## 4 Adelie 
## 5 Adelie 
## # ℹ 339 more rows

複数列

pen_r |> 
  select(species, bill_length_mm)

## # A tibble: 344 × 2
##   species bill_length_mm
##   <fct>            <dbl>
## 1 Adelie            39.1
## 2 Adelie            39.5
## 3 Adelie            40.3
## 4 Adelie            NA  
## 5 Adelie            36.7
## # ℹ 339 more rows

pen_r |> 
  select(species:bill_length_mm)

## # A tibble: 344 × 3
##   species island    bill_length_mm
##   <fct>   <fct>              <dbl>
## 1 Adelie  Torgersen           39.1
## 2 Adelie  Torgersen           39.5
## 3 Adelie  Torgersen           40.3
## 4 Adelie  Torgersen           NA  
## 5 Adelie  Torgersen           36.7
## # ℹ 339 more rows
…
5.4.2
列名を正規表現で選ぶ

5.4.2.1 R

pen_r |> 
  select(matches("^bill")) # starts_with("bill")

## # A tibble: 344 × 2
##   bill_length_mm bill_depth_mm
##            <dbl>         <dbl>
## 1           39.1          18.7
## 2           39.5          17.4
## 3           40.3          18  
## 4           NA            NA  
## 5           36.7          19.3
## # ℹ 339 more rows

pen_r |> 
  select(matches("mm$")) # ends_with("mm")

## # A tibble: 344 × 3
##   bill_length_mm bill_depth_mm flipper_length_mm
##            <dbl>         <dbl>             <int>
## 1           39.1          18.7               181
## 2           39.5          17.4               186
## 3           40.3          18                 195
## 4           NA            NA                  NA
## 5           36.7          19.3               193
## # ℹ 339 more rows
…
5.4.3 列を削除する

5.4.3.1 R

pen_r |> select(!c(species, island))

## # A tibble: 344 × 6
##   bill_length_mm bill_depth_mm flipper_length_mm body_mass_g sex     year
##            <dbl>         <dbl>             <int>       <int> <fct>  <int>
## 1           39.1          18.7               181        3750 male    2007
## 2           39.5          17.4               186        3800 female  2007
## 3           40.3          18                 195        3250 female  2007
## 4           NA            NA                  NA          NA <NA>    2007
## 5           36.7          19.3               193        3450 female  2007
## # ℹ 339 more rows
…
5.5 列名を変更する

5.5.1 R

new = old

pen_r |> 
  rename(species2 = species,
         island2  = island)

## # A tibble: 344 × 8
##   species2 island2   bill_length_mm bill_depth_mm flipper_length_mm body_mass_g
##   <fct>    <fct>              <dbl>         <dbl>             <int>       <int>
## 1 Adelie   Torgersen           39.1          18.7               181        3750
## 2 Adelie   Torgersen           39.5          17.4               186        3800
## 3 Adelie   Torgersen           40.3          18                 195        3250
## 4 Adelie   Torgersen           NA            NA                  NA          NA
## 5 Adelie   Torgersen           36.7          19.3               193        3450
## # ℹ 339 more rows
## # ℹ 2 more variables: sex <fct>, year <int>
…
5.6
列の値で並び変える

5.6.1 R

# 昇順
pen_r |> arrange(bill_length_mm)

## # A tibble: 344 × 8
##   species island    bill_length_mm bill_depth_mm flipper_length_mm body_mass_g
##   <fct>   <fct>              <dbl>         <dbl>             <int>       <int>
## 1 Adelie  Dream               32.1          15.5               188        3050
## 2 Adelie  Dream               33.1          16.1               178        2900
## 3 Adelie  Torgersen           33.5          19                 190        3600
## 4 Adelie  Dream               34            17.1               185        3400
## 5 Adelie  Torgersen           34.1          18.1               193        3475
## # ℹ 339 more rows
## # ℹ 2 more variables: sex <fct>, year <int>

# 降順
pen_r |> arrange(desc(bill_length_mm))

## # A tibble: 344 × 8
##   species   island bill_length_mm bill_depth_mm flipper_length_mm body_mass_g
##   <fct>     <fct>           <dbl>         <dbl>             <int>       <int>
## 1 Gentoo    Biscoe           59.6          17                 230        6050
## 2 Chinstrap Dream            58            17.8               181        3700
## 3 Gentoo    Biscoe           55.9          17                 228        5600
## 4 Chinstrap Dream            55.8          19.8               207        4000
## 5 Gentoo    Biscoe           55.1          16                 230        5850
## # ℹ 339 more rows
## # ℹ 2 more variables: sex <fct>, year <int>
…
pen_r |> 
  filter(bill_length_mm > 55 & bill_depth_mm == 17)

## # A tibble: 2 × 8
##   species island bill_length_mm bill_depth_mm flipper_length_mm body_mass_g
##   <fct>   <fct>           <dbl>         <dbl>             <int>       <int>
## 1 Gentoo  Biscoe           59.6            17               230        6050
## 2 Gentoo  Biscoe           55.9            17               228        5600
## # ℹ 2 more variables: sex <fct>, year <int>

pen_r |> 
  filter(species == "Gentoo")

## # A tibble: 124 × 8
##   species island bill_length_mm bill_depth_mm flipper_length_mm body_mass_g
##   <fct>   <fct>           <dbl>         <dbl>             <int>       <int>
## 1 Gentoo  Biscoe           46.1          13.2               211        4500
## 2 Gentoo  Biscoe           50            16.3               230        5700
## 3 Gentoo  Biscoe           48.7          14.1               210        4450
## 4 Gentoo  Biscoe           50            15.2               218        5700
## 5 Gentoo  Biscoe           47.6          14.5               215        5400
## # ℹ 119 more rows
## # ℹ 2 more variables: sex <fct>, year <int>

pen_r |> 
  filter(str_detect(species, "Gen"))

## # A tibble: 124 × 8
##   species island bill_length_mm bill_depth_mm flipper_length_mm body_mass_g
##   <fct>   <fct>           <dbl>         <dbl>             <int>       <int>
## 1 Gentoo  Biscoe           46.1          13.2               211        4500
## 2 Gentoo  Biscoe           50            16.3               230        5700
## 3 Gentoo  Biscoe           48.7          14.1               210        4450
## 4 Gentoo  Biscoe           50            15.2               218        5700
## 5 Gentoo  Biscoe           47.6          14.5               215        5400
## # ℹ 119 more rows
## # ℹ 2 more variables: sex <fct>, year <int>
…
shape: (2, 8)speciesislandbill_length_mmbill_depth_mmflipper_length_mmbody_mass_gsexyear
strstrf64f64f64f64stri64
"Gentoo""Biscoe"59.617.0230.06050.0"male"2007
"Gentoo""Biscoe"55.917.0228.05600.0"male"2009

5.7.2
欠損のある行を落とす

5.7.2.1 R

pen_r |> 
  drop_na(sex, bill_length_mm)

## # A tibble: 333 × 8
##   species island    bill_length_mm bill_depth_mm flipper_length_mm body_mass_g
##   <fct>   <fct>              <dbl>         <dbl>             <int>       <int>
## 1 Adelie  Torgersen           39.1          18.7               181        3750
## 2 Adelie  Torgersen           39.5          17.4               186        3800
## 3 Adelie  Torgersen           40.3          18                 195        3250
## 4 Adelie  Torgersen           36.7          19.3               193        3450
## 5 Adelie  Torgersen           39.3          20.6               190        3650
## # ℹ 328 more rows
## # ℹ 2 more variables: sex <fct>, year <int>
…
# pen_pl.drop_nulls(subset = ['sex']).select([pl.col("sex").value_counts()])

5.8 新たな列を作る

5.8.1 基本

5.8.1.1 R

pen_r |> 
  mutate(species2 = species,
         island2 = island,
         .keep = "used")   # 使用した列のみに 

## # A tibble: 344 × 4
##   species island    species2 island2  
##   <fct>   <fct>     <fct>    <fct>    
## 1 Adelie  Torgersen Adelie   Torgersen
## 2 Adelie  Torgersen Adelie   Torgersen
## 3 Adelie  Torgersen Adelie   Torgersen
## 4 Adelie  Torgersen Adelie   Torgersen
## 5 Adelie  Torgersen Adelie   Torgersen
## # ℹ 339 more rows
…
5.8.2 平均値列作成

5.8.2.1 R

pen_r |> 
  mutate(blmm_mean = mean(bill_length_mm, na.rm = TRUE),
         .keep = "used")

## # A tibble: 344 × 2
##   bill_length_mm blmm_mean
##            <dbl>     <dbl>
## 1           39.1      43.9
## 2           39.5      43.9
## 3           40.3      43.9
## 4           NA        43.9
## 5           36.7      43.9
## # ℹ 339 more rows
…
pen_r <- 
  pen_r |> 
  mutate(blmc = case_when(bill_length_mm < 40 ~ "first",
                          bill_length_mm >= 40 & bill_length_mm < 50 ~ "second",
                          bill_length_mm >= 50 ~ "third")) 

# 確認
pen_r |> 
  count(blmc, bill_length_mm)

## # A tibble: 165 × 3
##   blmc  bill_length_mm     n
##   <chr>          <dbl> <int>
## 1 first           32.1     1
## 2 first           33.1     1
## 3 first           33.5     1
## 4 first           34       1
## 5 first           34.1     1
## # ℹ 160 more rows
…
5.10 動詞をつなげる

5.10.1 R

|>でつなげる

pen_r |> 
  select(species, bill_length_mm) |> 
  filter(species == "Gentoo")

## # A tibble: 124 × 2
##   species bill_length_mm
##   <fct>            <dbl>
## 1 Gentoo            46.1
## 2 Gentoo            50  
## 3 Gentoo            48.7
## 4 Gentoo            50  
## 5 Gentoo            47.6
## # ℹ 119 more rows
…
6.4.3.2 Python

7 ファイルの読み書き

7.1
ファイルの読み込み

7.1.1 Excelファイル

7.1.1.1 R

readxl::read_xlsx("data/ペンギン.xlsx")

## # A tibble: 344 × 9
##   species 種類     island    bill_length_mm bill_depth_mm flipper_length_mm
##   <chr>   <chr>    <chr>              <dbl>         <dbl>             <dbl>
## 1 Adelie  アデリー Torgersen           39.1          18.7               181
## 2 Adelie  アデリー Torgersen           39.5          17.4               186
## 3 Adelie  アデリー Torgersen           40.3          18                 195
## 4 Adelie  アデリー Torgersen           NA            NA                  NA
## 5 Adelie  アデリー Torgersen           36.7          19.3               193
## # ℹ 339 more rows
## # ℹ 3 more variables: body_mass_g <dbl>, sex <chr>, year <dbl>
…
7.1.2 csvファイル

7.1.2.1 utf-8

7.1.2.1.1 R

penr_csv <- 
read_csv("data/ペンギン（ひどい列名）ver_utf8.csv")

penr_csv

## # A tibble: 344 × 9
##   Sｐｅｃｉｅｓ `種　類` `※島の名前` `①クチバシ　長さ（ｍｍ）`
##   <chr>         <chr>    <chr>                           <dbl>
## 1 Adelie        アデリー Torgersen                        39.1
## 2 Adelie        アデリー Torgersen                        39.5
## 3 Adelie        アデリー Torgersen                        40.3
## 4 Adelie        アデリー Torgersen                        NA  
## 5 Adelie        アデリー Torgersen                        36.7
## # ℹ 339 more rows
## # ℹ 5 more variables: `②ｸﾁﾊﾞｼ＿大きさ（ｍｍ）` <dbl>, `翼：長さ(mm)` <dbl>,
## #   `■体重　単位はｇ` <dbl>, `㊛㊚` <chr>, `２００７～２００９` <dbl>
…
7.1.2.2
shift-jis(cp932)

7.1.2.2.1 R

read_csv("data/ペンギン（ひどい列名）ver_cp932.csv",
         locale = locale(encoding = "cp932"))

## # A tibble: 344 × 9
##   Sｐｅｃｉｅｓ `種　類` `※島の名前` `①クチバシ　長さ（ｍｍ）`
##   <chr>         <chr>    <chr>                           <dbl>
## 1 Adelie        アデリー Torgersen                        39.1
## 2 Adelie        アデリー Torgersen                        39.5
## 3 Adelie        アデリー Torgersen                        40.3
## 4 Adelie        アデリー Torgersen                        NA  
## 5 Adelie        アデリー Torgersen                        36.7
## # ℹ 339 more rows
## # ℹ 5 more variables: `②ｸﾁﾊﾞｼ＿大きさ（ｍｍ）` <dbl>, `翼：長さ(mm)` <dbl>,
## #   `■体重　単位はｇ` <dbl>, `??` <chr>, `２００７～２００９` <dbl>
…
